%YAML 1.1
%TAG !u! tag:unity3d.com,2011:
--- !u!114 &11400000
MonoBehaviour:
  m_ObjectHideFlags: 0
  m_PrefabParentObject: {fileID: 0}
  m_PrefabInternal: {fileID: 0}
  m_GameObject: {fileID: 0}
  m_Enabled: 1
  m_EditorHideFlags: 0
  m_Script: {fileID: 11500000, guid: a418015a207847546b7b8a8097223bc8, type: 3}
  m_Name: Meta
  m_EditorClassIdentifier: 
  _title: Meta
  _descriptionText: '%NAME% feels like someone else is making the choices. Like life
    is just a game. '
  damage: -5
  allValue: 0
  _statusEffect: {fileID: 0}
  _event:
    m_PersistentCalls:
      m_Calls:
      - m_Target: {fileID: 11400000}
        m_MethodName: RemoveKarma
        m_Mode: 0
        m_Arguments:
          m_ObjectArgument: {fileID: 0}
          m_ObjectArgumentAssemblyTypeName: UnityEngine.Object, UnityEngine
          m_IntArgument: 0
          m_FloatArgument: 0
          m_StringArgument: 
          m_BoolArgument: 0
        m_CallState: 2
      - m_Target: {fileID: 11400000}
        m_MethodName: PlaySound
        m_Mode: 0
        m_Arguments:
          m_ObjectArgument: {fileID: 0}
          m_ObjectArgumentAssemblyTypeName: UnityEngine.Object, UnityEngine
          m_IntArgument: 0
          m_FloatArgument: 0
          m_StringArgument: 
          m_BoolArgument: 0
        m_CallState: 2
    m_TypeName: PlayerEvent, Assembly-CSharp, Version=0.0.0.0, Culture=neutral, PublicKeyToken=null
  _allPlayerEvent:
    m_PersistentCalls:
      m_Calls: []
    m_TypeName: AllPlayerEvent, Assembly-CSharp, Version=0.0.0.0, Culture=neutral,
      PublicKeyToken=null
  _eventSoundName: event:/Events/Dizzy
